…
## Data sets

Comes with one data set.

### `polcom`

Consists of survey responses to demographic, background, and likert-type
attitudinal items about political communication.

``` r
tibble::as_tibble(polcom)
#> # A tibble: 244 x 63
#>    follow_trump news_1 news_2 news_3 news_4 news_5 news_6 ambiv_sexism_1
#>  * <lgl>         <int>  <int>  <int>  <int>  <int>  <int>          <int>
#>  1 TRUE              8      1      1      1      1      6              3
#>  2 TRUE              1      1      1      1      1      1              5
#>  3 TRUE              8      1      1      1      8      1              5
#>  4 TRUE              8      1      1      1      1      6              2
#>  5 TRUE              6      1      2      1      1      3              4
#>  6 TRUE              8      1      1      1      6      8              1
#>  7 TRUE              8      1      1      1      1      1              4
#>  8 TRUE              5      1      1      3      2      1              1
#>  9 TRUE              8      1      1      1      1      1              1
#> 10 TRUE              5      1      6      7      5      6              3
#> # ... with 234 more rows, and 55 more variables: ambiv_sexism_2 <int>,
#> #   ambiv_sexism_3 <int>, ambiv_sexism_4 <int>, ambiv_sexism_5 <int>,
#> #   ambiv_sexism_6 <int>, img1_hrc_1 <int>, img1_hrc_2 <dbl>,
#> #   img1_hrc_3 <int>, img1_hrc_4 <dbl>, img1_hrc_5 <int>,
#> #   img1_hrc_6 <int>, img1_hrc_7 <int>, img1_hrc_8 <int>,
#> #   img1_hrc_9 <int>, img2_hrc_10 <int>, img2_hrc_11 <int>,
#> #   img2_hrc_12 <dbl>, img2_hrc_13 <int>, img2_hrc_14 <int>,
#> #   img2_hrc_15 <dbl>, img1_djt_1 <int>, img1_djt_2 <dbl>,
#> #   img1_djt_3 <int>, img1_djt_4 <dbl>, img1_djt_5 <int>,
…
